{ "height":16,
 "infinite":false,
 "layers":[
        {
         "data":[0, 0, 0, 0, 0, 0, 0, 0, 0, 0, 0, 0, 0, 0, 0, 0, 0, 0, 0, 0, 0, 0, 0, 0, 0, 0, 0, 0, 0, 0, 0, 0, 0, 0, 0, 0, 0, 0, 0, 0, 0, 0, 0, 0, 0, 0, 0, 0, 0, 0, 0, 0, 0, 0, 0, 0, 0, 0, 0, 0, 0, 0, 0, 0, 0, 0, 0, 0, 0, 0, 0, 0, 0, 0, 0, 0, 0, 0, 0, 0, 0, 0, 0, 0, 0, 0, 0, 0, 0, 0, 0, 0, 0, 0, 0, 0, 0, 0, 0, 0, 0, 0, 0, 0, 0, 0, 0, 0, 0, 0, 0, 0, 0, 0, 0, 0, 0, 0, 0, 0, 0, 0, 0, 0, 0, 0, 0, 0, 0, 0, 0, 0, 0, 0, 0, 0, 0, 0, 0, 0, 0, 0, 0, 0, 0, 0, 0, 0, 0, 0, 0, 0, 0, 0, 0, 0, 0, 0, 0, 0, 0, 0, 0, 0, 0, 0, 0, 0, 0, 0, 0, 0, 0, 0, 0, 0, 0, 0, 0, 0, 0, 0, 0, 0, 0, 0, 0, 0, 0, 0, 0, 0, 0, 0, 0, 0, 0, 0, 0, 0, 0, 0, 0, 0, 0, 0, 0, 0, 0, 0, 0, 0, 0, 0, 0, 0, 0, 0, 0, 0, 0, 0, 0, 0, 0, 0, 0, 0, 0, 0, 0, 0, 0, 0, 0, 0, 0, 0, 0, 0, 0, 0, 0, 0, 0, 0, 0, 0, 0, 0, 0, 0, 0, 0, 0, 0],
         "height":16,
         "name":"Decor",
         "opacity":1,
         "type":"tilelayer",
         "visible":false,
         "width":16,
         "x":0,
         "y":0
        }, 
        {
         "data":[42, 42, 42, 42, 42, 42, 42, 42, 42, 42, 42, 42, 42, 42, 42, 42, 42, 0, 0, 42, 0, 0, 42, 0, 0, 0, 42, 0, 0, 42, 0, 42, 42, 0, 0, 42, 0, 0, 42, 0, 0, 0, 42, 0, 0, 42, 0, 42, 42, 0, 0, 42, 0, 0, 42, 0, 0, 0, 42, 0, 0, 0, 0, 42, 42, 0, 0, 42, 0, 0, 0, 0, 0, 0, 42, 0, 0, 0, 0, 42, 42, 0, 0, 42, 0, 0, 0, 0, 0, 0, 42, 0, 0, 0, 0, 42, 42, 0, 0, 42, 17, 0, 0, 0, 0, 0, 42, 0, 17, 42, 0, 42, 42, 0, 0, 0, 0, 0, 42, 17, 0, 17, 42, 0, 0, 42, 0, 42, 42, 0, 0, 0, 0, 0, 42, 0, 0, 0, 42, 0, 0, 42, 0, 42, 42, 0, 0, 0, 0, 0, 42, 0, 0, 0, 0, 0, 0, 42, 0, 42, 42, 0, 0, 0, 0, 0, 42, 0, 0, 0, 0, 0, 0, 42, 0, 42, 42, 0, 17, 42, 0, 0, 42, 0, 0, 0, 42, 17, 0, 42, 0, 42, 42, 0, 0, 42, 0, 0, 42, 0, 0, 0, 42, 0, 0, 42, 0, 42, 42, 0, 0, 42, 0, 0, 42, 0, 0, 0, 42, 0, 0, 42, 0, 42, 42, 0, 0, 42, 0, 0, 42, 0, 0, 0, 42, 0, 0, 42, 0, 42, 42, 42, 42, 42, 42, 42, 42, 42, 42, 42, 42, 42, 42, 42, 42, 42],
         "height":16,
         "name":"Ground",
         "opacity":1,
         "type":"tilelayer",
         "visible":true,
         "width":16,
         "x":0,
         "y":0
        }, 
        {
         "data":[0, 0, 0, 0, 0, 0, 0, 0, 0, 0, 0, 0, 0, 0, 0, 0, 0, 0, 424, 0, 0, 0, 0, 0, 0, 0, 0, 424, 0, 0, 0, 0, 0, 0, 0, 0, 0, 0, 0, 0, 0, 0, 0, 0, 0, 0, 0, 0, 0, 0, 0, 0, 0, 0, 0, 0, 0, 0, 0, 0, 0, 0, 0, 0, 0, 0, 0, 0, 0, 0, 0, 0, 0, 0, 0, 0, 0, 0, 0, 0, 0, 0, 0, 0, 0, 0, 0, 0, 0, 0, 0, 0, 0, 0, 0, 0, 0, 0, 0, 0, 0, 0, 0, 0, 0, 0, 0, 0, 0, 0, 0, 0, 0, 0, 0, 0, 0, 0, 0, 0, 0, 0, 0, 0, 0, 0, 0, 0, 0, 0, 0, 0, 0, 0, 0, 0, 0, 0, 0, 0, 0, 0, 0, 0, 0, 0, 0, 0, 0, 0, 0, 0, 0, 0, 0, 0, 0, 0, 0, 0, 0, 0, 0, 0, 0, 0, 0, 0, 0, 0, 0, 0, 0, 0, 0, 0, 0, 0, 0, 0, 0, 0, 0, 0, 0, 0, 0, 0, 0, 0, 0, 0, 0, 0, 0, 0, 0, 0, 0, 0, 0, 0, 0, 0, 0, 0, 0, 0, 0, 0, 0, 0, 0, 0, 0, 0, 0, 0, 0, 0, 0, 0, 0, 0, 0, 424, 0, 0, 0, 0, 0, 0, 0, 0, 0, 0, 0, 0, 424, 0, 0, 0, 0, 0, 0, 0, 0, 0, 0, 0, 0, 0, 0, 0, 0, 0],
         "height":16,
         "name":"Spawn",
         "opacity":1,
         "type":"tilelayer",
         "visible":true,
         "width":16,
         "x":0,
         "y":0
        }, 
        {
         "data":[0, 0, 0, 0, 0, 0, 0, 0, 0, 0, 0, 0, 0, 0, 0, 0, 0, 0, 0, 0, 595, 595, 0, 595, 595, 595, 0, 0, 0, 0, 194, 0, 0, 0, 0, 0, 595, 595, 0, 595, 595, 595, 0, 0, 0, 0, 194, 0, 0, 0, 0, 0, 0, 0, 0, 0, 0, 0, 0, 0, 0, 0, 0, 0, 0, 0, 0, 0, 0, 0, 0, 0, 0, 0, 0, 0, 0, 0, 0, 0, 0, 0, 0, 0, 0, 0, 0, 0, 0, 0, 0, 0, 0, 595, 595, 0, 0, 0, 0, 0, 0, 0, 0, 0, 194, 0, 0, 0, 0, 0, 595, 0, 0, 0, 0, 0, 194, 0, 0, 0, 194, 0, 0, 0, 0, 0, 0, 0, 0, 595, 595, 0, 194, 0, 0, 194, 194, 194, 0, 0, 0, 0, 0, 0, 0, 0, 595, 595, 194, 0, 0, 0, 0, 0, 0, 0, 0, 0, 0, 0, 0, 0, 0, 194, 194, 0, 0, 0, 0, 0, 0, 0, 0, 0, 0, 0, 0, 0, 0, 0, 0, 0, 0, 0, 0, 0, 0, 0, 0, 0, 0, 0, 0, 0, 0, 0, 0, 0, 0, 0, 0, 0, 0, 0, 0, 0, 0, 0, 0, 0, 0, 0, 595, 595, 0, 595, 595, 595, 0, 595, 595, 0, 0, 0, 0, 0, 0, 0, 595, 595, 0, 595, 595, 595, 0, 595, 595, 0, 0, 0, 0, 0, 0, 0, 0, 0, 0, 0, 0, 0, 0, 0, 0, 0, 0, 0],
         "height":16,
         "name":"Bonus",
         "opacity":1,
         "type":"tilelayer",
         "visible":true,
         "width":16,
         "x":0,
         "y":0
        }],
 "nextobjectid":1,
 "orientation":"orthogonal",
 "renderorder":"right-down",
 "tiledversion":"1.1.2",
 "tileheight":16,
 "tilesets":[
        {
         "columns":25,
         "firstgid":1,
         "image":"..\/tiles\/battle_city.png",
         "imageheight":256,
         "imagewidth":400,
         "margin":0,
         "name":"Atlas",
         "spacing":0,
         "tilecount":400,
         "tileheight":16,
         "tileproperties":
            {
             "16":
                {
                 "cassable":true
                },
             "193":
                {
                 "points":7
                },
             "194":
                {
                 "points":10
                },
             "41":
                {
                 "cassable":false
                },
             "66":
                {
                 "cassable":false
                }
            },
         "tilepropertytypes":
            {
             "16":
                {
                 "cassable":"bool"
                },
             "193":
                {
                 "points":"int"
                },
             "194":
                {
                 "points":"int"
                },
             "41":
                {
                 "cassable":"bool"
                },
             "66":
                {
                 "cassable":"bool"
                }
            },
         "tilewidth":16
        }, 
        {
         "columns":25,
         "firstgid":401,
         "image":"..\/tiles\/battle_city.png",
         "imageheight":256,
         "imagewidth":400,
         "margin":0,
         "name":"Atlas",
         "spacing":0,
         "tilecount":400,
         "tileheight":16,
         "tileproperties":
            {
             "16":
                {
                 "cassable":true
                },
             "41":
                {
                 "cassable":false
                },
             "66":
                {
                 "cassable":false
                }
            },
         "tilepropertytypes":
            {
             "16":
                {
                 "cassable":"bool"
                },
             "41":
                {
                 "cassable":"bool"
                },
             "66":
                {
                 "cassable":"bool"
                }
            },
         "tilewidth":16
        }],
 "tilewidth":16,
 "type":"map",
 "version":1,
 "width":16
}